{
    "iglesias": [
        { "nombre": "Instituto Discípulos de Jesús de San Juan Bautista" },
        { "nombre": "Parroquia Santa Bernardita de Guaymallén" },
        { "nombre": "Vicaría María Medianera de todas las gracias, Salta" },
        { "nombre": "Santa María del Yguazú en la ciudad de Montecarlo" },
        { "nombre": "COLEGIO ALEJANDRO CARBO" },
        { "nombre": "Colegio Santa Rosa de Viterbo de San Lorenzo Santa Fe" },
        { "nombre": "Santiago del Estero" },
        { "nombre": "Instituto del Verbo Encarnado (IVE)" },
        { "nombre": "Bell Ville, Cordoba" },
        { "nombre": "Verbo Encarnado, San Rafael Mendoza" },
        { "nombre": "colegio Carmen Arriola de Marín de San Isidro, Buenos Aires." },
        { "nombre": "Capilla Virgen del Carmen de Rio Grande Tierra del Fuego" },
        { "nombre": "Parroquia San Antonio de Padua, en la ciudad de El Colorado" },
        { "nombre": "Río Gallegos" },
        { "nombre": "ex arzobispo de la ciudad de Santa Fe monseñor" },
        { "nombre": "Instituto Próvolo de Mendoza" },
        { "nombre": "Jardín de infantes de la Escuela Nuestra Señora del Camino, Mar del Plata " },
        { "nombre": "Colegio Marianista de Caballito, Bs. As" },
        { "nombre": "Hogar San Luis Gonzaga,  localidad de Monte Comán,  San Rafael, Mendoza" },
        { "nombre": "Colegio Cardenal Newman de San Isidro" },
        { "nombre": "Instituto Monseñor Tomás Solari, ubicado en la avenida Don Bosco 4817, Morón" },
        { "nombre": "Instituto Antonio Provolo de La Plata " },
        { "nombre": "Hogar Hermano Francisco de Quilmes" },
        { "nombre": "Colegio Marianista, Caballito" },
        { "nombre": "Instituto Próvolo" },
        { "nombre": "Parroquia Santa Rita y Capilla San Antonio, Esquina Corrientes" },
        { "nombre": "Parroquia de San Martín, Mendoza" },
        { "nombre": "hogar parroquial de Tigre" },
        { "nombre": "parroquia de Belén, Catamarca" },
        { "nombre": "parroquia San Juan Evangelista" },
        { "nombre": "Instituto San Josafat de la localidad de Apóstoles" },
        { "nombre": "Instituto Provolo" },
        { "nombre": "Congregación para la Doctrina de la Fe" },
        { "nombre": "Colegio Franciscano Tierra Santa de la Ciudad de Buenos Aires" },
        { "nombre": "Colegio Ave María de la ObraDon Oriione, Claypole Bs. As" },
        { "nombre": "Hogar Obra Don Bosco Bernal" },
        { "nombre": "Parroquial del Colegio Nuestra Señora de Luján de Cuyo, Mendoza" },
        { "nombre": "Parroquia Santa Rosa de Lima, de Entre Ríos" },
        { "nombre": "Congregación Discípulos de Jesús de San Juan Bautista" },
        { "nombre": "Capilla San Manuel, Pilar Bs. As" },
        { "nombre": "Fundación Felices los Niños" },
        { "nombre": "Sagrada Familia de Mar del Plata" },
        { "nombre": "Instituto Próvolo, Mendoza" },
        { "nombre": "Obispado Río Cuarto" },
        { "nombre": "iglesia Nuestra Señora del Rosario de Monteros" },
        { "nombre": "Instituto para chicos sordos e hipoacúsicos Próvolo de Mendoza" },
        { "nombre": "congregación del sacerdote Agustin Rosa" },
        { "nombre": "Instituto Vicente Pallotti, Turdera, Buenos Aires" },
        { "nombre": "Directivo del Próvolo de La Plata" },
        { "nombre": "Fundación Felices los Niños" },
        { "nombre": "Parroquia Sagrado Corazón de Jesús en el Barrio Ñuñorc" },
        { "nombre": "parroquia San Juan Bautista, en Buenos Aires" },
        { "nombre": "Parroquia Inmaculado Corazón de María, San Luis" },
        { "nombre": "Iglesia Madre de la Divina Gracia, de Gonnet" },
        { "nombre": "Parroquia Nuestra Señora de Fatima, Cañuelas" },
        { "nombre": "Instituto Parroquial Berrotarán" },
        { "nombre": "Director del colegio salesiano Don Bosco, Mendoza" },
        { "nombre": "Parroquia Nuestra Señora de Pompeya, Rosario" },
        { "nombre": "Parroquia Andalgalá, Catamarca" },
        { "nombre": "Claretianos dedicados a las misiones de las Naciones Unidas" },
        { "nombre": "Casa de Formación de la Iglesia Católica" }
    ]
}